Project 1: Wrangling, Exploration, Visualization
…
clean_joineddata2 %>% group_by(state) %>% summarize(count = n())

## # A tibble: 51 x 2
##    state                count
##    <chr>                <int>
##  1 Alabama                  1
##  2 Alaska                   1
##  3 Arizona                  1
##  4 Arkansas                 1
##  5 California               1
##  6 Colorado                 1
##  7 Connecticut              1
##  8 Delaware                 1
##  9 District of Columbia     1
## 10 Florida                  1
## #  with 41 more rows
…
clean_joineddata2 %>% group_by(Diverse) %>% summarize(count = n())

## # A tibble: 2 x 2
##   Diverse count
##   <chr>   <int>
## 1 high        6
## 2 low        45

This is a table of my numeric variables, which shows the mean, standard deviation, maximum, minimum, and distinct counts for each state in the United States. This is one big table that prints out these values for the states. I then found the counts for each of my categorical variables. As expected, there is only one count for each of the states. Surprisingly, the amount of states that were considered to be rural were almost even (with 20 being no and 31 being yes). Furthermore, very surprising to see that there were only 6 states that were considered to have high diversity (having a percentage of BIPOC greater than 50).

# Some more summary statistics for my variables
clean_joineddata2 %>% group_by(state, Diverse) %>% summarize(HouseholdIncome = mean(HouseholdIncome)) %>% 
    arrange(desc((HouseholdIncome)))

## # A tibble: 51 x 3
## # Groups:   state [51]
##    state                Diverse HouseholdIncome
##    <chr>                <chr>             <dbl>
##  1 District of Columbia high             90395 
##  2 New Jersey           low              85193.
##  3 Massachusetts        low              80279.
##  4 Maryland             low              79316.
##  5 Connecticut          low              79151.
##  6 Rhode Island         low              77003.
##  7 California           high             71197.
##  8 New Hampshire        low              70350 
##  9 Alaska               low              67924.
## 10 Delaware             low              67517.
## #  with 41 more rows
…
